{
  "project_info": {
    "project_number": "92211673450",
    "firebase_url": "https://doctorondemand.firebaseio.com",
    "project_id": "doctorondemand",
    "storage_bucket": "doctorondemand.appspot.com"
  },
  "client": [
    {
      "client_info": {
        "mobilesdk_app_id": "1:92211673450:android:44b7797bb3b82ea1",
        "android_client_info": {
          "package_name": "com.urbesalud.doctorondemand_doctor"
        }
      },
      "oauth_client": [
        {
          "client_id": "92211673450-fnlhbb1lfn7dhj4t4u54v5fkn03fdqar.apps.googleusercontent.com",
          "client_type": 1,
          "android_info": {
            "package_name": "com.urbesalud.doctorondemand_doctor",
            "certificate_hash": "9eaa19a4c5ce4dacc03d52020eab04aea5d2d790"
          }
        },
        {
          "client_id": "92211673450-i1e3f5ar2ee4i4gqbpo3smbr4l5irqcb.apps.googleusercontent.com",
          "client_type": 3
        }
      ],
      "api_key": [
        {
          "current_key": "AIzaSyBysGBdwYYKLaTReYwtCJh79bSkVFdmJnE"
        }
      ],
      "services": {
        "appinvite_service": {
          "other_platform_oauth_client": [
            {
              "client_id": "92211673450-i1e3f5ar2ee4i4gqbpo3smbr4l5irqcb.apps.googleusercontent.com",
              "client_type": 3
            }
          ]
        }
      }
    },
    {
      "client_info": {
        "mobilesdk_app_id": "1:92211673450:android:ef806d089f29e934",
        "android_client_info": {
          "package_name": "com.urbesalud.doctorondemandpatientapp"
        }
      },
      "oauth_client": [
        {
          "client_id": "92211673450-ef4kbu5j0b3ke455hgkmoqsrpar42llf.apps.googleusercontent.com",
          "client_type": 1,
          "android_info": {
            "package_name": "com.urbesalud.doctorondemandpatientapp",
            "certificate_hash": "9eaa19a4c5ce4dacc03d52020eab04aea5d2d790"
          }
        },
        {
          "client_id": "92211673450-i1e3f5ar2ee4i4gqbpo3smbr4l5irqcb.apps.googleusercontent.com",
          "client_type": 3
        }
      ],
      "api_key": [
        {
          "current_key": "AIzaSyBysGBdwYYKLaTReYwtCJh79bSkVFdmJnE"
        }
      ],
      "services": {
        "appinvite_service": {
          "other_platform_oauth_client": [
            {
              "client_id": "92211673450-i1e3f5ar2ee4i4gqbpo3smbr4l5irqcb.apps.googleusercontent.com",
              "client_type": 3
            }
          ]
        }
      }
    }
  ],
  "configuration_version": "1"
}